Spotify Most Streamed Songs — Music Feature and Audience Trend Analysis – Pinn (Aiqi) Xu Projects
…
Presence in Deezer Playlists

Likewise, the variable of presence counts in Deezer playlists also appears to be character type originally. We therefore use str_detect() again to check whether there are invalid format of numbers. As shown in the two outputs below, there are several comma-separated format of numbers, and no more invalid numbers in any other format, we therefore need to do further manipulation before coercing.

Code

# view values that are not 0 or pure numbers
cat("Non-Number Values:\n\n")
df |> 
  select(in_deezer_playlists) |> 
  filter(!str_detect(in_deezer_playlists, "^(0|[1-9][0-9]*)$"))

Non-Number Values:

# A tibble: 79 × 1
   in_deezer_playlists
   <chr>              
 1 2,445              
 2 3,394              
 3 3,421              
 4 4,053              
 5 1,056              
 6 4,095              
 7 1,003              
 8 1,800              
 9 2,703              
10 1,632              
# ℹ 69 more rows
…
